<?xml version="1.0" encoding="UTF-8" standalone="no"?>
<svg
   version="1.0"
   width="30.023638pt"
   height="36.299194pt"
   viewBox="0 0 30.023637 36.299195"
   preserveAspectRatio="xMidYMid meet"
   id="svg6"
   sodipodi:docname="cursor-click.svg"
   inkscape:version="1.1.1 (3bf5ae0d25, 2021-09-20)"
   xmlns:inkscape="http://www.inkscape.org/namespaces/inkscape"
   xmlns:sodipodi="http://sodipodi.sourceforge.net/DTD/sodipodi-0.dtd"
   xmlns="http://www.w3.org/2000/svg"
   xmlns:svg="http://www.w3.org/2000/svg">
  <defs
     id="defs10" />
  <sodipodi:namedview
     id="namedview8"
     pagecolor="#ffffff"
     bordercolor="#666666"
     borderopacity="1.0"
     inkscape:pageshadow="2"
     inkscape:pageopacity="0.0"
     inkscape:pagecheckerboard="0"
     inkscape:document-units="pt"
     showgrid="false"
     fit-margin-top="0"
     fit-margin-left="0"
     fit-margin-right="0"
     fit-margin-bottom="0"
     inkscape:zoom="8.184375"
     inkscape:cx="-2.8713249"
     inkscape:cy="15.456281"
     inkscape:window-width="3440"
     inkscape:window-height="1440"
     inkscape:window-x="0"
     inkscape:window-y="0"
     inkscape:window-maximized="1"
     inkscape:current-layer="svg6" />
  <g
     transform="matrix(0.00226458,-0.00168339,-0.00168339,-0.00226458,19.67039,40.315519)"
     fill="#000000"
     stroke="none"
     id="g4">
    <path
       d="m 1550,12774 c -73,-27 -97,-50 -189,-184 -37,-54 -70,-116 -89,-170 -35,-101 -80,-210 -94,-227 -6,-7 -23,-13 -39,-13 -24,0 -35,9 -59,47 -55,87 -65,136 -52,264 10,94 10,116 -2,127 -11,12 -18,11 -42,-2 -103,-56 -144,-168 -144,-396 0,-137 0,-140 -24,-155 -34,-22 -59,-7 -78,47 -32,86 -38,132 -27,194 26,149 25,155 -33,131 -28,-12 -38,-26 -66,-94 -46,-113 -55,-177 -48,-319 6,-105 5,-124 -9,-138 -9,-9 -19,-16 -21,-16 -19,0 -86,46 -121,82 -45,46 -63,83 -63,128 0,72 -54,30 -83,-64 -26,-80 -23,-230 4,-292 20,-44 21,-59 15,-164 -3,-63 -11,-144 -17,-180 -19,-117 18,-275 86,-365 14,-17 25,-38 25,-46 0,-8 -21,-25 -46,-38 -25,-14 -85,-63 -134,-110 l -88,-86 -46,-125 c -25,-69 -48,-137 -52,-152 -6,-26 -4,-28 27,-28 23,0 42,9 65,31 38,36 52,40 339,85 256,40 369,44 384,15 15,-28 -3,-79 -59,-165 -105,-161 -152,-293 -190,-541 -18,-115 -21,-168 -18,-300 5,-147 7,-165 32,-224 15,-36 39,-80 54,-99 37,-49 114,-85 192,-92 l 65,-5 3,-90 c 5,-116 -14,-279 -44,-381 -25,-88 -122,-315 -229,-539 -82,-171 -142,-335 -155,-424 -5,-36 -12,-248 -14,-471 l -4,-405 68,-380 68,-380 121,-258 c 95,-202 154,-312 273,-504 l 152,-246 197,-201 c 181,-185 220,-219 460,-401 l 263,-199 147,-48 147,-49 113,-280 114,-280 190,-212 c 112,-125 241,-282 314,-383 116,-160 127,-180 183,-322 l 59,-151 85,-26 84,-26 v -175 c 0,-100 -9,-269 -21,-392 -27,-291 -77,-694 -86,-703 -5,-3 -62,-16 -128,-28 -212,-39 -253,-52 -328,-109 -38,-29 -81,-59 -98,-67 -16,-9 -38,-33 -49,-55 -11,-21 -24,-41 -29,-44 -4,-3 -37,6 -72,21 -47,19 -83,26 -136,27 l -73,1 -80,-83 c -61,-63 -83,-93 -93,-130 l -14,-47 -64,-8 c -120,-15 -181,-30 -215,-54 -20,-13 -52,-32 -73,-43 -22,-10 -62,-45 -90,-77 -52,-58 -67,-92 -33,-75 30,16 93,21 120,10 128,-50 224,-57 512,-33 102,9 205,17 230,18 l 44,2 -3,-72 c -3,-86 44,-325 64,-323 6,0 15,26 21,58 16,82 30,112 77,161 60,62 103,86 246,141 160,61 343,158 397,211 23,23 50,58 59,79 21,47 49,60 126,60 44,0 73,-7 109,-25 34,-17 66,-25 102,-25 29,0 75,-7 102,-15 27,-8 55,-15 63,-15 22,0 14,28 -22,76 -19,25 -35,52 -35,60 0,23 40,41 180,79 173,47 232,70 258,98 32,34 62,113 62,163 0,25 5,44 11,44 6,0 43,-33 83,-73 97,-100 236,-182 324,-192 34,-4 84,-18 110,-31 26,-13 49,-24 50,-24 7,0 -9,124 -21,164 -14,51 -138,151 -262,213 -165,82 -203,110 -231,164 -31,61 -45,176 -23,190 8,5 34,9 58,9 51,0 137,43 147,72 9,29 -29,63 -105,93 -127,51 -148,95 -137,288 4,67 16,239 27,382 23,280 21,428 -4,487 -15,36 -14,49 24,274 22,131 42,240 44,244 3,4 100,51 217,105 198,90 466,231 496,259 7,7 33,79 57,160 24,81 46,151 50,154 4,4 36,-24 71,-62 35,-38 66,-68 68,-65 2,2 53,106 114,230 60,124 114,229 119,232 6,4 55,-27 109,-68 53,-41 100,-72 104,-70 4,2 10,52 13,111 3,58 9,110 15,116 6,6 42,-19 103,-71 51,-45 96,-78 99,-74 4,5 24,50 45,101 21,50 44,92 51,92 7,0 38,-30 70,-66 39,-45 60,-61 64,-52 4,7 13,49 19,93 17,108 21,125 34,125 5,0 41,-18 79,-40 76,-44 73,-45 83,43 4,32 12,60 18,63 7,2 53,-12 102,-32 l 89,-36 36,39 c 19,21 52,59 72,83 50,60 58,46 58,-98 0,-108 1,-113 22,-121 23,-8 71,3 95,22 30,23 76,124 82,182 4,42 11,61 21,63 8,1 54,-22 102,-53 48,-30 92,-55 97,-55 6,0 24,45 41,100 18,55 36,102 41,106 5,3 18,-4 27,-16 l 18,-22 29,37 c 51,68 130,360 171,635 l 35,235 47,43 c 54,50 152,112 176,112 21,0 21,-58 1,-235 -8,-71 -15,-166 -15,-210 0,-81 18,-166 37,-172 24,-8 56,41 104,162 50,126 52,137 80,360 16,127 31,235 33,241 4,12 195,150 221,160 21,8 20,-48 -5,-256 -11,-91 -20,-180 -20,-197 0,-31 2,-33 33,-33 55,0 117,89 194,284 63,156 65,162 92,365 21,151 34,218 50,249 12,24 36,109 53,189 l 31,147 -23,78 -23,79 51,127 c 28,70 67,172 87,227 l 36,100 -47,137 -46,138 32,57 c 54,96 99,163 110,163 23,0 41,-69 65,-255 26,-194 26,-204 16,-484 -9,-277 -11,-292 -50,-480 -23,-106 -50,-227 -60,-268 -24,-94 -17,-123 32,-123 27,0 43,11 98,68 63,64 70,75 148,261 59,140 93,241 125,365 42,160 45,185 56,381 11,199 13,212 37,245 14,19 76,112 137,205 l 113,170 47,240 48,239 -6,311 c -3,170 -8,334 -12,363 -4,34 -2,52 5,52 6,0 28,-24 50,-52 33,-44 48,-82 90,-228 29,-101 63,-253 81,-360 l 32,-185 -12,-210 c -12,-203 -14,-216 -62,-395 -43,-159 -59,-202 -114,-305 -51,-94 -64,-128 -62,-155 3,-34 4,-35 52,-38 43,-3 57,2 128,45 66,39 96,66 164,148 73,87 93,121 160,264 l 76,164 21,176 c 17,146 21,230 21,491 v 315 l -41,165 c -49,202 -177,520 -286,712 -65,114 -89,145 -245,311 -153,165 -194,202 -376,340 l -203,155 -190,80 -191,80 -248,38 c -317,48 -359,50 -616,30 -193,-15 -235,-22 -443,-72 l -230,-56 -180,-108 c -244,-147 -437,-312 -679,-579 -138,-152 -209,-241 -330,-414 l -154,-221 -208,-471 c -156,-353 -222,-515 -264,-650 -32,-99 -70,-207 -85,-240 -14,-33 -68,-170 -119,-306 -51,-135 -113,-283 -137,-329 -56,-106 -91,-132 -230,-171 -92,-26 -120,-29 -245,-29 -136,0 -266,14 -428,45 -128,25 -293,130 -467,297 -65,62 -81,85 -107,149 -18,42 -82,182 -143,310 -131,275 -279,669 -394,1048 -43,140 -117,363 -165,495 -73,198 -105,270 -180,405 -137,246 -221,361 -347,478 -216,201 -627,463 -906,579 -82,34 -153,66 -159,72 -17,17 19,21 237,26 194,4 204,5 351,43 136,36 162,46 256,104 183,112 318,284 364,462 33,128 32,232 -2,329 -33,92 -74,170 -88,165 -6,-2 -14,-24 -17,-49 -16,-109 -58,-157 -262,-301 -66,-47 -165,-77 -252,-77 -41,0 -44,2 -56,37 -19,60 -5,304 22,359 41,85 80,124 179,178 51,28 95,56 97,62 2,7 -3,19 -12,28 -19,19 -89,21 -205,6 -126,-16 -353,-137 -412,-219 -47,-66 -130,-160 -154,-176 -49,-32 -72,7 -104,166 -9,46 -8,70 6,130 18,82 48,136 105,190 29,26 37,40 32,57 -7,28 -28,27 -113,-4 z M 8300,9943 c 0,-16 -67,-127 -82,-137 -20,-12 -183,45 -183,65 0,8 39,25 105,46 103,31 160,40 160,26 z m 668,-99 c 115,-59 137,-75 230,-167 71,-70 133,-144 196,-237 l 93,-135 31,-184 31,-185 -26,-217 c -26,-219 -34,-253 -52,-234 -5,6 -42,93 -81,194 -79,200 -52,158 -334,526 l -89,116 12,100 c 14,116 7,214 -20,277 -11,25 -48,71 -89,111 -51,48 -69,72 -64,84 3,10 13,17 20,17 8,0 72,-30 142,-66 z m -4838,-6871 73,-86 27,-131 c 25,-117 28,-161 34,-406 4,-151 16,-420 27,-598 22,-363 21,-381 -37,-432 -85,-74 -202,-100 -454,-100 h -160 v 49 c 0,27 4,61 10,75 9,23 15,26 62,26 71,0 103,17 103,55 0,25 -7,34 -43,53 -49,27 -102,93 -102,127 0,12 12,78 26,146 14,68 51,264 83,434 l 57,311 90,105 91,106 7,169 c 7,166 10,184 25,184 4,0 40,-39 81,-87 z M 3888,992 c -2,-4 -14,-26 -28,-49 -23,-39 -28,-43 -66,-43 -82,0 -181,55 -160,89 7,11 259,14 254,3 z m -527,-24 c 6,-60 -35,-120 -95,-143 -42,-16 -54,-16 -183,-1 -148,17 -233,39 -233,62 0,20 46,28 80,14 41,-17 94,-7 138,27 30,23 53,29 132,39 134,16 160,16 161,2 z M 2457,735 c 31,-8 96,-15 144,-15 135,0 192,-32 82,-46 -59,-7 -303,9 -323,21 -8,5 -4,15 11,31 12,13 24,24 25,24 2,0 29,-7 61,-15 z"
       id="path2" />
  </g>
</svg>
